{
    // See https://go.microsoft.com/fwlink/?LinkId=733558
    // for the documentation about the tasks.json format
    "version": "2.0.0",
    "tasks": [
        {
            "label": "Build",
            "group": {
                "kind": "build",
                "isDefault": true
            },
            "type": "shell",
            "command": "make",
            "args": [
                "all"
            ],
            "problemMatcher": "$gcc"
        },
        {
            "label": "build_debug_32",
            "group": "build",
            "type": "shell",
            "command": "make",
            "args": [
                "debug32"
            ],
            "problemMatcher": "$gcc"
        },
        {
            "label": "build_release_32",
            "group": "build",
            "type": "shell",
            "command": "make",
            "args": [
                "release32"
            ],
            "problemMatcher": "$gcc"
        },
        {
            "label": "build_debug_64",
            "group": "build",
            "type": "shell",
            "command": "make",
            "args": [
                "debug64"
            ],
            "problemMatcher": "$gcc"
        },
        {
            "label": "build_release_64",
            "group": "build",
            "type": "shell",
            "command": "make",
            "args": [
                "release64"
            ],
            "problemMatcher": "$gcc"
        }
    ]
}